module github.com/prymitive/karma

require (
	github.com/DeanThompson/ginpprof v0.0.0-20190408070748-3be636683586
	github.com/blang/semver v3.6.1+incompatible
	github.com/certifi/gocertifi v0.0.0-20190415145530-92f724a62f3e // indirect
	github.com/cnf/structhash v0.0.0-20180104161610-62a607eb0224
	github.com/elazarl/go-bindata-assetfs v1.0.1-0.20180223160309-38087fe4dafb
	github.com/getsentry/raven-go v0.2.0
	github.com/gin-contrib/cors v0.0.0-20190301064136-f9e10995c85a
	github.com/gin-contrib/gzip v0.0.1
	github.com/gin-contrib/static v0.0.0-20190301094727-ed515893e96b
	github.com/gin-gonic/contrib v0.0.0-20190408174833-b5986969cb50
	github.com/gin-gonic/gin v1.3.0
	github.com/go-bindata/go-bindata v3.1.1+incompatible
	github.com/golangci/golangci-lint v1.16.0
	github.com/hansrodtang/randomcolor v0.0.0-20160512071917-d27108b3d7a5
	github.com/jarcoal/httpmock v1.0.3
	github.com/mcuadros/go-gin-prometheus v0.0.0-20181030200533-58963fb32f54
	github.com/patrickmn/go-cache v2.1.0+incompatible
	github.com/pkg/errors v0.8.1 // indirect
	github.com/pmezard/go-difflib v1.0.0
	github.com/prometheus/client_golang v0.9.2
	github.com/prometheus/common v0.3.0
	github.com/sirupsen/logrus v1.4.0
	github.com/spf13/pflag v1.0.3
	github.com/spf13/viper v1.3.2
	github.com/terinjokes/bakelite v0.2.0
	gopkg.in/go-playground/colors.v1 v1.2.0
	gopkg.in/yaml.v2 v2.2.2
)
